[gd_scene load_steps=3 format=2]

[ext_resource path="res://assets/sprites/tasks/cooking/pepper_right.png" type="Texture" id=1]
[ext_resource path="res://assets/sprites/tasks/cooking/pepper_left.png" type="Texture" id=2]

[node name="PepperVertical" type="Node2D"]
__meta__ = {
"_edit_group_": true,
"_edit_lock_": true
}

[node name="Piece1" type="RigidBody2D" parent="."]
linear_velocity = Vector2( -100, 0 )

[node name="Sprite" type="Sprite" parent="Piece1"]
texture = ExtResource( 2 )

[node name="CollisionPolygon2D" type="CollisionPolygon2D" parent="Piece1"]
polygon = PoolVector2Array( 0, -109, 0, 105, -5, 104, -8, 103, -17, 106, -45, 107, -55, 102, -64, 95, -72, 87, -76, 76, -77, 40, -89, -1, -89, -24, -80, -52, -74, -62, -66, -71, -60, -76, -53, -79, -40, -79, -26, -86, -7, -87, -8, -104, -6, -109 )

[node name="Piece2" type="RigidBody2D" parent="."]
linear_velocity = Vector2( 100, 0 )

[node name="Sprite" type="Sprite" parent="Piece2"]
texture = ExtResource( 1 )

[node name="CollisionPolygon2D" type="CollisionPolygon2D" parent="Piece2"]
polygon = PoolVector2Array( 1, -109, 1, 105, 26, 108, 49, 102, 65, 88, 75, 70, 80, 29, 89, -11, 89, -34, 82, -47, 71, -58, 63, -70, 50, -79, 36, -82, 15, -83, 9, -102, 7, -106, 4, -109 )
