[gd_scene load_steps=3 format=2]

[ext_resource path="res://assets/sprites/tasks/cooking/pepper_diagonal1_bottom.png" type="Texture" id=1]
[ext_resource path="res://assets/sprites/tasks/cooking/pepper_diagonal1_top.png" type="Texture" id=2]

[node name="PepperDiagonal1" type="Node2D"]
__meta__ = {
"_edit_group_": true,
"_edit_lock_": true
}

[node name="Piece1" type="RigidBody2D" parent="."]
linear_velocity = Vector2( 100, 0 )

[node name="Sprite" type="Sprite" parent="Piece1"]
texture = ExtResource( 2 )

[node name="CollisionPolygon2D" type="CollisionPolygon2D" parent="Piece1"]
polygon = PoolVector2Array( -61, -74, 69, 84, 74, 72, 78, 59, 81, 27, 87, 2, 90, -11, 90, -30, 85, -43, 77, -53, 71, -59, 62, -71, 55, -77, 45, -81, 28, -83, 16, -83, 7, -106, 0, -109, -7, -107, -7, -93, -6, -87, -25, -86, -39, -79, -52, -79 )

[node name="Piece2" type="RigidBody2D" parent="."]
linear_velocity = Vector2( -100, 0 )

[node name="Sprite" type="Sprite" parent="Piece2"]
texture = ExtResource( 1 )

[node name="CollisionPolygon2D" type="CollisionPolygon2D" parent="Piece2"]
polygon = PoolVector2Array( -62, -74, 68, 84, 66, 88, 61, 93, 55, 98, 46, 103, 38, 106, 26, 108, 7, 106, -8, 103, -26, 107, -45, 106, -55, 102, -63, 96, -70, 89, -75, 80, -77, 41, -88, -1, -89, -24, -77, -58, -69, -68 )
